{
    "maps": [
        {
            "fileName": "start.tmx",
            "x": -1000,
            "y": 0
        },
        {
            "fileName": "start_underground.tmx",
            "x": -1000,
            "y": 250
        },
        {
            "fileName": "start_labyrinth.tmx",
            "x": -600,
            "y": 250
        },
        {
            "fileName": "start_town_night.tmx",
            "x": -1200,
            "y": -500
        },
        {
            "fileName": "forest.tmx",
            "x": 1000,
            "y": 0
        },
        {
            "fileName": "town.tmx",
            "x": 0,
            "y": 0
        },
        {
            "fileName": "bateau.tmx",
            "x": 0,
            "y": -500
        },
        {
            "fileName": "beach.tmx",
            "x": 1800,
            "y": -600
        }
    ],
    "type": "world"
}
